id;civility;id_number;first_name;second_name;third_name;fourth_name;family_name;birth_name;birth_date;birth_city;birth_country;nationality;english_first_name;english_second_name;english_third_name;english_fourth_name;english_family_name;english_birth_city;gender;marital_status;photo_id;religion;religion_sector;phone_list_id;address_list_id;grade;home_room;school_id;school_name
1;mobile Fish;Home Loan Account Table Computer;Anderson;FTP Savings Account;deposit Tasty Metal Bacon Implementation;Chips;Money Market Account;Albania web-readiness;2019-09-04;Investment Account Steel;Coordinator;Common;Savings Account syndicate Planner;Refined Rubber Chicken Table;Automotive;Planner cross-platform access;Public-key;infomediaries;12203;60999;49517;83319;3438;17336;90932;Digitized invoice;convergence;20794;Georgia Industrial
2;connect Markets Chief;capacitor archive;Keyon;Aruba;software scale interactive;Louisiana Specialist Home Loan Account;Plastic;Car Industrial deliverables;2019-09-03;24 hour;overriding;monitor 1080p Checking Account;world-class Frozen IB;Highway Ergonomic;moratorium moratorium;New York tangible Mississippi;Frozen bus;hard drive Robust Networked;4043;52273;71066;42754;11089;2541;43933;red;withdrawal knowledge base Buckinghamshire;90756;Phased
3;Saint Lucia white;Generic neutral Salad;Toby;virtual deposit;Squares mint green e-business;Ghana back-end National;Direct;Profit-focused;2019-09-03;copying;ability Hat Iraq;magenta Concrete;User-centric Gloves;Mauritania;facilitate Tasty Concrete Chips Exclusive;Buckinghamshire capability zero tolerance;mission-critical;Berkshire Small Plastic Pants Investor;23956;68070;14489;53093;48945;44778;98565;Persistent Bulgarian Lev;24/7 Re-contextualized cross-platform;47030;Orchestrator deliver
4;Licensed hacking installation;Argentine Peso;Ryann;neural-net red;Buckinghamshire Future-proofed deposit;Quality;synthesize Creative;Forint;2019-09-03;azure;SMS Enhanced;Bacon Designer;Equatorial Guinea Vision-oriented;Agent;Human deposit;even-keeled Saint Helena Pound;Internal AI optical;bypassing Marketing;78534;89855;66898;60642;58068;919;37228;Branding;Home Gloves Latvia;69189;invoice Devolved
5;Computers Bedfordshire Fish;payment calculating;Madyson;Nevada;Berkshire;dedicated Persevering;Coordinator Cambridgeshire Investor;cross-platform Borders;2019-09-03;Cambridgeshire white sensor;Alaska;deposit Chips Applications;uniform PCI back up;Tactics architectures Planner;Facilitator Incredible functionalities;compressing;Bedfordshire;Maryland Configuration;69602;93001;57006;7041;9717;20891;61500;Director Concrete Bedfordshire;portal calculating Metal;70891;France protocol
6;open-source HDD;Sleek Beauty Auto Loan Account;Clemmie;Handcrafted Cotton Bacon Unbranded Fresh Pants;incubate;interfaces;Garden Dale Wallis and Futuna;generating;2019-09-03;Assimilated;compressing;Brunei Darussalam interface;compress lavender Investment Account;backing up;Iran;Philippine Peso Metal;Strategist;card Licensed Cotton Ball;43352;43897;74404;7845;25086;2535;18433;Refined infomediaries Som;Salad;15643;Enterprise-wide Benin
7;Tuna Response invoice;alarm Jamaica;Leopold;paradigms Organic strategic;Steel leading-edge Small;Incredible Fresh Chips;Shoes Music connect;Hollow Shoes systems;2019-09-03;Personal Loan Account;HTTP explicit;Personal Loan Account;Cambridgeshire Norfolk Island;Soap Tasty Metal Sausages Outdoors;invoice multi-byte;incubate deposit Station;parsing Investment Account;Branding Dynamic black;6936;21458;10077;37725;1822;3896;9444;Gourde US Dollar Handcrafted Plastic Shirt;Armenian Dram wireless directional;49603;Solomon Islands Dollar
8;Personal Loan Account HTTP;schemas Specialist China;Henri;South Dakota Wyoming interface;incentivize;Louisiana JSON Texas;bandwidth;application Configurable iterate;2019-09-03;Buckinghamshire monetize;Direct;Small Frozen Salad bypassing;time-frame Quality;Borders Borders Practical;methodical;Pakistan;parse;neural Wooden Optimization;97424;5755;99593;54952;5587;44153;73703;Guam bandwidth Liaison;program Auto Loan Account Refined;8410;Algerian Dinar Fantastic Fresh Salad
9;Steel Avon Visionary;exploit transition;Raoul;Interactions;Pennsylvania dynamic bandwidth;navigate Oklahoma;Triple-buffered array;Bedfordshire Tools;2019-09-03;Handmade Wooden Cheese Fresh;input Naira;Markets;Glen Refined;Mandatory Assistant;Strategist;Incredible Fresh Car Tuvalu;Senior Optional Yemeni Rial;Central African Republic;62939;21680;69574;29449;45454;99583;62755;Maryland Legacy Unbranded Plastic Chips;Unbranded Cotton Table Generic B2B;16967;withdrawal
10;one-to-one Indiana;holistic;Devan;Ridges Beauty dynamic;multi-byte Pound Sterling;Frozen;parsing;models New Mexico District;2019-09-04;SCSI Aruba Chair;drive online;Liaison engage navigate;Assistant generating;Practical Steel Shirt Plastic Movies;SMS;Zimbabwe parse Customer;input Accounts;enhance Multi-channelled purple;25144;95405;27473;60617;20722;22864;87822;calculate Fantastic Concrete Computer Baby;Kyrgyz Republic transmit;52016;SAS
