{
    "name": "HomeRoom",
    "fields": [
        {
            "fieldName": "name",
            "fieldType": "String"
        },
        {
            "fieldName": "code",
            "fieldType": "String"
        }
    ],
    "relationships": [],
    "changelogDate": "20190904083605",
    "entityTableName": "home_room",
    "dto": "no",
    "pagination": "no",
    "service": "no",
    "jpaMetamodelFiltering": false,
    "fluentMethods": true,
    "clientRootFolder": "",
    "applications": "*"
}